<svg width="24" height="24" viewBox="0 0 24 24" fill="none" xmlns="http://www.w3.org/2000/svg">
<path d="M12.5 7C11.0413 7 9.64236 7.57946 8.61091 8.61091C7.57946 9.64236 7 11.0413 7 12.5C7 13.9587 7.57946 15.3576 8.61091 16.3891C9.64236 17.4205 11.0413 18 12.5 18C13.9587 18 15.3576 17.4205 16.3891 16.3891C17.4205 15.3576 18 13.9587 18 12.5C18 11.0413 17.4205 9.64236 16.3891 8.61091C15.3576 7.57946 13.9587 7 12.5 7ZM12.5 16.0719C11.5524 16.0719 10.6435 15.6955 9.97344 15.0254C9.30335 14.3553 8.9269 13.4465 8.9269 12.4988C8.9269 11.5512 9.30335 10.6423 9.97344 9.97225C10.6435 9.30216 11.5524 8.92571 12.5 8.92571C13.4476 8.92571 14.3565 9.30216 15.0266 9.97225C15.6966 10.6423 16.0731 11.5512 16.0731 12.4988C16.0731 13.4465 15.6966 14.3553 15.0266 15.0254C14.3565 15.6955 13.4476 16.0719 12.5 16.0719Z" fill="black"/>
<path d="M18 8C18.5523 8 19 7.55228 19 7C19 6.44771 18.5523 6 18 6C17.4477 6 17 6.44771 17 7C17 7.55228 17.4477 8 18 8Z" fill="black"/>
<path d="M17.25 3H7.75C5.12665 3 3 5.12665 3 7.75V17.25C3 19.8734 5.12665 22 7.75 22H17.25C19.8734 22 22 19.8734 22 17.25V7.75C22 5.12665 19.8734 3 17.25 3Z" stroke="black" stroke-width="2" stroke-linecap="round" stroke-linejoin="round"/>
</svg>
